N:\mbarc\Documents\Tassio\src\main\java\br\com\enade\model\Tbtipousuario.java
N:\mbarc\Documents\Tassio\src\main\java\br\com\enade\tx\Transacional.java
N:\mbarc\Documents\Tassio\src\main\java\br\com\enade\dao\UsuarioDao.java
N:\mbarc\Documents\Tassio\src\main\java\br\com\enade\util\JsfUtil.java
N:\mbarc\Documents\Tassio\src\main\java\br\com\enade\dao\QuestaoDao.java
N:\mbarc\Documents\Tassio\src\main\java\br\com\enade\util\JPAUtil.java
N:\mbarc\Documents\Tassio\src\main\java\br\com\enade\bean\LoginBean.java
N:\mbarc\Documents\Tassio\src\main\java\br\com\enade\bean\ProvaBean.java
N:\mbarc\Documents\Tassio\src\main\java\br\com\enade\model\Tbusuario.java
N:\mbarc\Documents\Tassio\src\main\java\br\com\enade\dao\TipoUsuarioDao.java
N:\mbarc\Documents\Tassio\src\main\java\br\com\enade\bean\ResultadoBean.java
N:\mbarc\Documents\Tassio\src\main\java\br\com\enade\dao\DAO.java
N:\mbarc\Documents\Tassio\src\main\java\br\com\enade\model\Tbtipoquestao.java
N:\mbarc\Documents\Tassio\src\main\java\br\com\enade\dao\ResultadoDao.java
N:\mbarc\Documents\Tassio\src\main\java\br\com\enade\bean\UsuarioBean.java
N:\mbarc\Documents\Tassio\src\main\java\br\com\enade\util\Autorizador.java
N:\mbarc\Documents\Tassio\src\main\java\br\com\enade\dao\TipoQuestaoDao.java
N:\mbarc\Documents\Tassio\src\main\java\br\com\enade\tx\GerenciadorDeTransacao.java
N:\mbarc\Documents\Tassio\src\main\java\br\com\enade\bean\QuestaoBean.java
N:\mbarc\Documents\Tassio\src\main\java\br\com\enade\model\Tbprova.java
N:\mbarc\Documents\Tassio\src\main\java\br\com\enade\model\Tbresultado.java
N:\mbarc\Documents\Tassio\src\main\java\br\com\enade\util\Relatorio.java
N:\mbarc\Documents\Tassio\src\main\java\br\com\enade\bean\DashboardBean.java
N:\mbarc\Documents\Tassio\src\main\java\br\com\enade\model\Tbquestao.java
N:\mbarc\Documents\Tassio\src\main\java\br\com\enade\bean\RelatorioBean.java
N:\mbarc\Documents\Tassio\src\main\java\br\com\enade\dao\ProvaDao.java
N:\mbarc\Documents\Tassio\src\main\java\br\com\enade\util\LogPhaseListener.java
